
{
    "title":"Enter a Name",
    "isSaved":true,
    "pages":[
        {
            "page_title":"page1",
            "student_name":"ENTER A STUDEN NAME",
            "footer":"ENTER A FOOTER",
            "banner_image_file_name":"DefaultBannerImage.png",
            "banner_image_path":"./images/",
            "font_family":"Montserrat",
            "font_size":"8pt",
            "is_bold":false,
            "is_italic":false,
            "is_underlined":false,
            "layout":"layout1",
            "color_template":"color1",
            "header_components":[
                {
                    "content":"fdsfdsfdsf"
                }
            ],
            "list_components":[
                {
                    "list":[
                        {
                            "content":"fdsf"
                        },
                        {
                            "content":"fsdf"
                        },
                        {
                            "content":"sdsfdsf"
                        }
                    ],
                    "font_family":"Montserrat",
                    "font_size":"8pt",
                    "is_bold":false,
                    "is_italic":false,
                    "is_underlined":false
                }
            ],
            "paragraph_components":[
                {
                    "content":"fdsfdsfdsfdsfsdf",
                    "font_family":"Montserrat",
                    "font_size":"8pt",
                    "is_bold":false,
                    "is_italic":false,
                    "is_underlined":false
                }
            ],
            "video_components":[
                {
                    "image_path":"/Users/yiren/Downloads/",
                    "image_file_name":"mov.mp4",
                    "width":"444",
                    "height":"444",
                    "caption":"2312312312"
                }
            ],
            "image_components":[
                {
                    "image_path":"/Users/yiren/NetBeansProjects/finalproject/EPortfolioGenerator/images/",
                    "image_file_name":"DefaultVideoImage.png",
                    "width":"444",
                    "height":"444",
                    "caption":"dasdasdasdas",
                    "floating":"None"
                }
            ],
            "slideshow_components":[
                {
                    "title":"dasdasdasda",
                    "slides":[
                        {
                            "image_file_name":"EPG_Logo.png",
                            "image_path":"/Users/yiren/NetBeansProjects/finalproject/EPortfolioGenerator/images/",
                            "caption":"dasdasd"
                        },
                        {
                            "image_file_name":"DefaultSlideShowImage.png",
                            "image_path":"/Users/yiren/NetBeansProjects/finalproject/EPortfolioGenerator/images/",
                            "caption":"dasdasdas"
                        }
                    ]
                }
            ],
            "order_components":[
                {
                    "order":"h"
                },
                {
                    "order":"l"
                },
                {
                    "order":"p"
                },
                {
                    "order":"i"
                },
                {
                    "order":"v"
                },
                {
                    "order":"s"
                }
            ]
        },
        {
            "page_title":"apge2",
            "student_name":"ENTER A STUDEN NAME",
            "footer":"ENTER A FOOTER",
            "banner_image_file_name":"DefaultBannerImage.png",
            "banner_image_path":"./images/",
            "font_family":"Montserrat",
            "font_size":"8pt",
            "is_bold":false,
            "is_italic":false,
            "is_underlined":false,
            "layout":"layout2",
            "color_template":"color2",
            "header_components":[
            ],
            "list_components":[
            ],
            "paragraph_components":[
            ],
            "video_components":[
            ],
            "image_components":[
            ],
            "slideshow_components":[
            ],
            "order_components":[
            ]
        },
        {
            "page_title":"apg2",
            "student_name":"ENTER A STUDEN NAME",
            "footer":"ENTER A FOOTER",
            "banner_image_file_name":"DefaultBannerImage.png",
            "banner_image_path":"./images/",
            "font_family":"Montserrat",
            "font_size":"8pt",
            "is_bold":false,
            "is_italic":false,
            "is_underlined":false,
            "layout":"layout3",
            "color_template":"color3",
            "header_components":[
            ],
            "list_components":[
            ],
            "paragraph_components":[
            ],
            "video_components":[
            ],
            "image_components":[
            ],
            "slideshow_components":[
            ],
            "order_components":[
            ]
        },
        {
            "page_title":"3231",
            "student_name":"ENTER A STUDEN NAME",
            "footer":"ENTER A FOOTER",
            "banner_image_file_name":"DefaultBannerImage.png",
            "banner_image_path":"./images/",
            "font_family":"Montserrat",
            "font_size":"8pt",
            "is_bold":false,
            "is_italic":false,
            "is_underlined":false,
            "layout":"layout4",
            "color_template":"color3",
            "header_components":[
            ],
            "list_components":[
            ],
            "paragraph_components":[
            ],
            "video_components":[
            ],
            "image_components":[
            ],
            "slideshow_components":[
            ],
            "order_components":[
            ]
        },
        {
            "page_title":"dsad",
            "student_name":"ENTER A STUDEN NAME",
            "footer":"ENTER A FOOTER",
            "banner_image_file_name":"DefaultBannerImage.png",
            "banner_image_path":"./images/",
            "font_family":"Montserrat",
            "font_size":"8pt",
            "is_bold":false,
            "is_italic":false,
            "is_underlined":false,
            "layout":"layout5",
            "color_template":"color5",
            "header_components":[
            ],
            "list_components":[
            ],
            "paragraph_components":[
            ],
            "video_components":[
            ],
            "image_components":[
            ],
            "slideshow_components":[
            ],
            "order_components":[
            ]
        }
    ]
}