
{
    "title":"mmm",
    "isSaved":true,
    "pages":[
        {
            "page_title":"newpage",
            "student_name":"ENTER A STUDEN NAME",
            "footer":"ENTER A FOOTER",
            "banner_image_file_name":"DefaultBannerImage.png",
            "banner_image_path":"./images/",
            "font_family":"Montserrat",
            "font_size":"8pt",
            "is_bold":false,
            "is_italic":false,
            "is_underlined":false,
            "layout":"layout1",
            "color_template":"color1",
            "header_components":[
            ],
            "list_components":[
            ],
            "paragraph_components":[
            ],
            "video_components":[
            ],
            "image_components":[
            ],
            "slideshow_components":[
            ],
            "order_components":[
            ]
        },
        {
            "page_title":"newpage",
            "student_name":"ENTER A STUDEN NAME",
            "footer":"ENTER A FOOTER",
            "banner_image_file_name":"DefaultBannerImage.png",
            "banner_image_path":"./images/",
            "font_family":"Montserrat",
            "font_size":"8pt",
            "is_bold":false,
            "is_italic":false,
            "is_underlined":false,
            "layout":"layout1",
            "color_template":"color1",
            "header_components":[
            ],
            "list_components":[
            ],
            "paragraph_components":[
            ],
            "video_components":[
            ],
            "image_components":[
            ],
            "slideshow_components":[
            ],
            "order_components":[
            ]
        },
        {
            "page_title":"newpage",
            "student_name":"ENTER A STUDEN NAME",
            "footer":"ENTER A FOOTER",
            "banner_image_file_name":"DefaultBannerImage.png",
            "banner_image_path":"./images/",
            "font_family":"Montserrat",
            "font_size":"8pt",
            "is_bold":false,
            "is_italic":false,
            "is_underlined":false,
            "layout":"layout1",
            "color_template":"color1",
            "header_components":[
            ],
            "list_components":[
            ],
            "paragraph_components":[
            ],
            "video_components":[
            ],
            "image_components":[
            ],
            "slideshow_components":[
            ],
            "order_components":[
            ]
        }
    ]
}